{
    "fields": [
        {
            "name": "CAM_ACT_COD",
            "description": "Code activite",
            "type": "string",
            "nomenclature": "XC_ATE_V",
            "length": "1",
            "format": "default",
            "dateCreated": "2006",
            "dateDeleted": "",
            "dateMissing": [],
            "observation": "",
            "regle_gestion": "",
            "type_oracle": "string"
        },
        {
            "name": "CAM_ACT_PRU",
            "description": "Prix unitaire CCAM de l'acte médical",
            "type": "number",
            "nomenclature": "-",
            "length": "7,2",
            "format": "default",
            "dateCreated": "2006",
            "dateDeleted": "",
            "dateMissing": [],
            "observation": "",
            "regle_gestion": "",
            "type_oracle": "number"
        },
        {
            "name": "CAM_ASS_COD",
            "description": "Code association",
            "type": "string",
            "nomenclature": "IR_ASS_V",
            "length": "1",
            "format": "default",
            "dateCreated": "2006",
            "dateDeleted": "",
            "dateMissing": [],
            "observation": "",
            "regle_gestion": "",
            "type_oracle": "string"
        },
        {
            "name": "CAM_CAB_IND",
            "description": "Top supplément de charge en cabinet",
            "type": "string",
            "nomenclature": "-",
            "length": "1",
            "format": "default",
            "dateCreated": "2006",
            "dateDeleted": "",
            "dateMissing": [],
            "observation": "",
            "regle_gestion": "",
            "type_oracle": "string"
        },
        {
            "name": "CAM_DOC_EXT",
            "description": "Extension documentaire",
            "type": "string",
            "nomenclature": "-",
            "length": "1",
            "format": "default",
            "dateCreated": "2006",
            "dateDeleted": "",
            "dateMissing": [],
            "observation": "",
            "regle_gestion": "",
            "type_oracle": "string"
        },
        {
            "name": "CAM_MOD_COD",
            "description": "Codes modificateurs",
            "type": "string",
            "nomenclature": "-",
            "length": "4",
            "format": "default",
            "dateCreated": "2006",
            "dateDeleted": "",
            "dateMissing": [],
            "observation": "",
            "regle_gestion": "",
            "type_oracle": "string"
        },
        {
            "name": "CAM_ORD_NUM",
            "description": "Numéro d'ordre de la prestation affinée CCAM",
            "type": "integer",
            "nomenclature": "-",
            "length": "3",
            "format": "default",
            "dateCreated": "2006",
            "dateDeleted": "",
            "dateMissing": [],
            "observation": "",
            "regle_gestion": "",
            "type_oracle": "number"
        },
        {
            "name": "CAM_PRS_IDE",
            "description": "Code CCAM de l'acte médical",
            "type": "string",
            "nomenclature": "IR_CCAM_V63",
            "length": "13",
            "format": "default",
            "dateCreated": "2006",
            "dateDeleted": "",
            "dateMissing": [],
            "observation": "",
            "regle_gestion": "",
            "type_oracle": "string"
        },
        {
            "name": "CAM_QUA_DEN",
            "description": "Localisation dentaire",
            "type": "string",
            "nomenclature": "-",
            "length": "32",
            "format": "default",
            "dateCreated": "2006",
            "dateDeleted": "",
            "dateMissing": [],
            "observation": "",
            "regle_gestion": "",
            "type_oracle": "string"
        },
        {
            "name": "CAM_REM_BSE",
            "description": "Base de remboursement de la CCAM",
            "type": "number",
            "nomenclature": "-",
            "length": "7,2",
            "format": "default",
            "dateCreated": "2006",
            "dateDeleted": "",
            "dateMissing": [],
            "observation": "",
            "regle_gestion": "",
            "type_oracle": "number"
        },
        {
            "name": "CAM_REM_COD",
            "description": "Code remboursement exceptionnel",
            "type": "string",
            "nomenclature": "-",
            "length": "1",
            "format": "default",
            "dateCreated": "2006",
            "dateDeleted": "",
            "dateMissing": [],
            "observation": "",
            "regle_gestion": "",
            "type_oracle": "string"
        },
        {
            "name": "CAM_TRT_PHA",
            "description": "Phase de traitement",
            "type": "integer",
            "nomenclature": "XC_PHA_V",
            "length": "1",
            "format": "default",
            "dateCreated": "2006",
            "dateDeleted": "",
            "dateMissing": [],
            "observation": "",
            "regle_gestion": "",
            "type_oracle": "number"
        },
        {
            "name": "ORG_CLE_NEW",
            "description": "Code de l'organisme de liquidation",
            "type": "string",
            "nomenclature": "IR_ORG_V",
            "length": "9",
            "format": "default",
            "dateCreated": "2006",
            "dateDeleted": "",
            "dateMissing": [],
            "observation": "",
            "regle_gestion": "",
            "type_oracle": "string"
        },
        {
            "name": "DCT_ORD_NUM",
            "description": "N° ordre décompte dans caisse                      1",
            "type": "integer",
            "nomenclature": "-",
            "length": "8",
            "format": "default",
            "dateCreated": "2006",
            "dateDeleted": "",
            "dateMissing": [],
            "observation": "",
            "regle_gestion": "",
            "type_oracle": "number"
        },
        {
            "name": "FLX_DIS_DTD",
            "description": "Date de mise à disposition des données",
            "type": "date",
            "nomenclature": "IR_DTE_V",
            "length": "8",
            "format": "default",
            "dateCreated": "2006",
            "dateDeleted": "",
            "dateMissing": [],
            "observation": "",
            "regle_gestion": "",
            "type_oracle": "date"
        },
        {
            "name": "FLX_EMT_NUM",
            "description": "numéro d'émetteur du flux",
            "type": "integer",
            "nomenclature": "IR_NEM_T",
            "length": "4",
            "format": "default",
            "dateCreated": "2006",
            "dateDeleted": "",
            "dateMissing": [],
            "observation": "",
            "regle_gestion": "",
            "type_oracle": "number"
        },
        {
            "name": "FLX_EMT_ORD",
            "description": "numéro de séquence du flux",
            "type": "integer",
            "nomenclature": "-",
            "length": "4",
            "format": "default",
            "dateCreated": "2006",
            "dateDeleted": "",
            "dateMissing": [],
            "observation": "",
            "regle_gestion": "",
            "type_oracle": "number"
        },
        {
            "name": "FLX_EMT_TYP",
            "description": "Type d'émetteur",
            "type": "integer",
            "nomenclature": "IR_TYT_V",
            "length": "2",
            "format": "default",
            "dateCreated": "2006",
            "dateDeleted": "",
            "dateMissing": [],
            "observation": "",
            "regle_gestion": "",
            "type_oracle": "number"
        },
        {
            "name": "FLX_TRT_DTD",
            "description": "Date d'entrée des données dans le système d'information",
            "type": "date",
            "nomenclature": "IR_DTE_V",
            "length": "8",
            "format": "default",
            "dateCreated": "2006",
            "dateDeleted": "",
            "dateMissing": [],
            "observation": "",
            "regle_gestion": "",
            "type_oracle": "date"
        },
        {
            "name": "ORG_CLE_NUM",
            "description": "organisme de liquidation des prestations (avant fusion des caisses)",
            "type": "string",
            "nomenclature": "IR_ORG_V",
            "length": "9",
            "format": "default",
            "dateCreated": "2006",
            "dateDeleted": "",
            "dateMissing": [],
            "observation": "",
            "regle_gestion": "",
            "type_oracle": "string"
        },
        {
            "name": "PRS_ORD_NUM",
            "description": "Numéro d'ordre de la prestation dans le décompte",
            "type": "integer",
            "nomenclature": "-",
            "length": "5",
            "format": "default",
            "dateCreated": "2006",
            "dateDeleted": "",
            "dateMissing": [],
            "observation": "",
            "regle_gestion": "",
            "type_oracle": "number"
        },
        {
            "name": "REM_TYP_AFF",
            "description": "type de remboursement affiné",
            "type": "integer",
            "nomenclature": "-",
            "length": "8",
            "format": "default",
            "dateCreated": "2006",
            "dateDeleted": "",
            "dateMissing": [],
            "observation": "",
            "regle_gestion": "",
            "type_oracle": "number"
        },
        {
            "name": "CAM_MI4_MNT",
            "description": "Montant Minoration due à association sur Modificateur4",
            "type": "number",
            "length": "9,2",
            "nomenclature": "-",
            "dateCreated": "2006",
            "dateDeleted": "",
            "dateMissing": [],
            "format": "default",
            "observation": "",
            "regle_gestion": "",
            "type_oracle": "number"
        },
        {
            "name": "CAM_MM4_MNT",
            "description": "Montant Majoration Modificateur4",
            "type": "number",
            "length": "9,2",
            "nomenclature": "-",
            "dateCreated": "2006",
            "dateDeleted": "",
            "dateMissing": [],
            "format": "default",
            "observation": "",
            "regle_gestion": "",
            "type_oracle": "number"
        },
        {
            "name": "CAM_GRI_TAR",
            "description": "Grille tarifaire",
            "type": "string",
            "length": "3",
            "nomenclature": "-",
            "dateCreated": "2009",
            "dateDeleted": "",
            "dateMissing": [],
            "format": "default",
            "observation": "",
            "regle_gestion": "",
            "type_oracle": "string"
        },
        {
            "name": "CAM_SUP_MNT",
            "description": "Montant supplément de Charge en Cabinet",
            "type": "number",
            "length": "9,2",
            "nomenclature": "-",
            "dateCreated": "2006",
            "dateDeleted": "",
            "dateMissing": [],
            "format": "default",
            "observation": "",
            "regle_gestion": "",
            "type_oracle": "number"
        },
        {
            "name": "CAM_MI1_MNT",
            "description": "Montant Minoration due à association sur Modificateur1",
            "type": "number",
            "length": "9,2",
            "nomenclature": "-",
            "dateCreated": "2006",
            "dateDeleted": "",
            "dateMissing": [],
            "format": "default",
            "observation": "",
            "regle_gestion": "",
            "type_oracle": "number"
        },
        {
            "name": "CAM_NRM_MNT",
            "description": "Montant Non Rmb du à annulation du tarif pr acte non rmb",
            "type": "number",
            "length": "9,2",
            "nomenclature": "-",
            "dateCreated": "2006",
            "dateDeleted": "",
            "dateMissing": [],
            "format": "default",
            "observation": "",
            "regle_gestion": "",
            "type_oracle": "number"
        },
        {
            "name": "CAM_MI3_MNT",
            "description": "Montant Minoration due à association sur Modificateur3",
            "type": "number",
            "length": "9,2",
            "nomenclature": "-",
            "dateCreated": "2006",
            "dateDeleted": "",
            "dateMissing": [],
            "format": "default",
            "observation": "",
            "regle_gestion": "",
            "type_oracle": "number"
        },
        {
            "name": "CAM_MM2_MNT",
            "description": "Montant Majoration Modificateur2",
            "type": "number",
            "length": "9,2",
            "nomenclature": "-",
            "dateCreated": "2006",
            "dateDeleted": "",
            "dateMissing": [],
            "format": "default",
            "observation": "",
            "regle_gestion": "",
            "type_oracle": "number"
        },
        {
            "name": "CAM_MM3_MNT",
            "description": "Montant Majoration Modificateur3",
            "type": "number",
            "length": "9,2",
            "nomenclature": "-",
            "dateCreated": "2006",
            "dateDeleted": "",
            "dateMissing": [],
            "format": "default",
            "observation": "",
            "regle_gestion": "",
            "type_oracle": "number"
        },
        {
            "name": "CAM_RED_MNT",
            "description": "Montant réduction Tarif due à praticien non conventionné",
            "type": "number",
            "length": "9,2",
            "nomenclature": "IR_FOR_V",
            "dateCreated":"2006",
            "dateDeleted": "",
            "dateMissing": [],
            "format": "default",
            "observation": "",
            "regle_gestion": "",
            "type_oracle": "number"
        },
        {
            "name": "CAM_MPU_MNT",
            "description": "Montant Minoration due à association sur PU de l' Acte",
            "type": "number",
            "length": "9,2",
            "nomenclature": "-",
            "dateCreated": "2006",
            "dateDeleted": "",
            "dateMissing": [],
            "format": "default",
            "observation": "",
            "regle_gestion": "",
            "type_oracle": "number"
        },
        {
            "name": "CAM_MM1_MNT",
            "description": "Montant Majoration Modificateur1",
            "type": "number",
            "length": "9,2",
            "nomenclature": "-",
            "dateCreated": "2006",
            "dateDeleted": "",
            "dateMissing": [],
            "format": "default",
            "observation": "",
            "regle_gestion": "",
            "type_oracle": "number"
        },
        {
            "name": "CAM_MI2_MNT",
            "description": "Montant Minoration due à association sur Modificateur2",
            "type": "number",
            "length": "9,2",
            "nomenclature": "-",
            "dateCreated": "2006",
            "dateDeleted": "",
            "dateMissing": [],
            "format": "default",
            "observation": "",
            "regle_gestion": "",
            "type_oracle": "number"
        }
    ],
    "name": "ER_CAM_F",
    "title": "Table des données de codage de la Classification Commune des Actes Médicaux",
    "produit": "DCIR",
    "missingValues": [
        ""
    ],
    "foreignKeys": [
        {
            "fields": [
                "DCT_ORD_NUM",
                "FLX_DIS_DTD",
                "FLX_EMT_NUM",
                "FLX_EMT_ORD",
                "FLX_EMT_TYP",
                "FLX_TRT_DTD",
                "ORG_CLE_NUM",
                "PRS_ORD_NUM",
                "REM_TYP_AFF"
            ],
            "reference": {
                "resource": "ER_PRS_F",
                "fields": [
                    "DCT_ORD_NUM",
                    "FLX_DIS_DTD",
                    "FLX_EMT_NUM",
                    "FLX_EMT_ORD",
                    "FLX_EMT_TYP",
                    "FLX_TRT_DTD",
                    "ORG_CLE_NUM",
                    "PRS_ORD_NUM",
                    "REM_TYP_AFF"
                ]
            }
        }
    ],
    "history": {
        "dateCreated": "",
        "dateDeleted": "",
        "dateMissing": []
    },
    "champ": "",
    "observation": ""
}
