{
    "fields": [
        {
            "name": "AGE_ANN",
            "description": "Age en années",
            "type": "integer",
            "nomenclature": "-",
            "length": "3",
            "format": "default",
            "constraints": {
                "minimum": 1,
                "maximum": 120
            },
            "dateCreated": "2005",
            "dateDeleted": "",
            "dateMissing": [],
            "observation": "",
            "regle_gestion": "",
            "type_oracle": "number"
        },
        {
            "name": "AGE_GES",
            "description": "Age gestationnel",
            "type": "integer",
            "nomenclature": "-",
            "length": "2",
            "format": "default",
            "constraints": {
                "minimum": 1,
                "maximum": 44
            },
            "dateCreated": "2008",
            "dateDeleted": "",
            "dateMissing": [],
            "observation": "",
            "regle_gestion": "",
            "type_oracle": "number"
        },
        {
            "name": "AGE_JOU",
            "description": "Age en jours",
            "type": "integer",
            "nomenclature": "-",
            "length": "3",
            "format": "default",
            "constraints": {
                "minimum": 0,
                "maximum": 365
            },
            "dateCreated": "2005",
            "dateDeleted": "",
            "dateMissing": [],
            "observation": "",
            "regle_gestion": "",
            "type_oracle": "number"
        },
        {
            "name": "ANT_SUP_NBR",
            "description": "Nombre de suppléments antepartum",
            "type": "integer",
            "nomenclature": "-",
            "length": "3",
            "format": "default",
            "constraints": {
                "minimum": 0,
                "maximum": 0
            },
            "dateCreated": "2012",
            "dateDeleted": "",
            "dateMissing": [],
            "observation": "",
            "regle_gestion": "",
            "type_oracle": "number"
        },
        {
            "name": "AUT_PGV_NBR",
            "description": "Nombre d'autorisations d'unités médicales à portée globale valides (Nb_AutPGV)",
            "type": "integer",
            "nomenclature": "-",
            "length": "1",
            "format": "default",
            "constraints": {
                "minimum": 0,
                "maximum": 2
            },
            "dateCreated": "2012",
            "dateDeleted": "",
            "dateMissing": [],
            "observation": "",
            "regle_gestion": "",
            "type_oracle": "number"
        },
        {
            "name": "BDI_COD",
            "description": "Code géographique de résidence",
            "type": "string",
            "nomenclature": "-",
            "length": "5",
            "format": "default",
            "dateCreated": "2005",
            "dateDeleted": "",
            "dateMissing": [],
            "observation": "",
            "regle_gestion": "",
            "type_oracle": "string"
        },
        {
            "name": "BDI_DEP",
            "description": "Code département de résidence",
            "type": "string",
            "nomenclature": "-",
            "length": "2",
            "format": "default",
            "dateCreated": "2005",
            "dateDeleted": "",
            "dateMissing": [],
            "observation": "",
            "regle_gestion": "",
            "type_oracle": "string"
        },
        {
            "name": "BEB_SEJ",
            "description": "Type de séjour inférieur à la borne extrême basse",
            "type": "string",
            "nomenclature": "-",
            "length": "1",
            "format": "default",
            "dateCreated": "2005",
            "dateDeleted": "",
            "dateMissing": [],
            "observation": "",
            "regle_gestion": "",
            "type_oracle": "string"
        },
        {
            "name": "BEH_NBJ",
            "description": "Nombre de journées au-delà de la borne extrême haute",
            "type": "integer",
            "nomenclature": "-",
            "length": "4",
            "format": "default",
            "dateCreated": "2005",
            "dateDeleted": "",
            "dateMissing": [],
            "observation": "",
            "regle_gestion": "",
            "type_oracle": "number"
        },
        {
            "name": "CAI_SUP_NBR",
            "description": "Nombre de suppléments caisson hyperbare",
            "type": "integer",
            "nomenclature": "-",
            "length": "3",
            "format": "default",
            "constraints": {
                "minimum": 0,
                "maximum": 59
            },
            "dateCreated": "2006",
            "dateDeleted": "",
            "dateMissing": [],
            "observation": "",
            "regle_gestion": "",
            "type_oracle": "number"
        },
        {
            "name": "COD_SEX",
            "description": "Sexe",
            "type": "string",
            "nomenclature": "-",
            "length": "1",
            "format": "default",
            "constraints": {
                "enum": [
                    "1",
                    "2",
                    "7",
                    "8",
                    "9"
                ]
            },
            "dateCreated": "2005",
            "dateDeleted": "",
            "dateMissing": [],
            "observation": "",
            "regle_gestion": "",
            "type_oracle": "string"
        },
        {
            "name": "DEL_REG_ENT",
            "description": "Délai de la date des dernières règles par rapport à la date d'entrée",
            "type": "integer",
            "nomenclature": "-",
            "length": "3",
            "format": "default",
            "constraints": {
                "minimum": 0,
                "maximum": 999
            },
            "dateCreated": "2011",
            "dateDeleted": "",
            "dateMissing": [],
            "observation": "",
            "regle_gestion": "",
            "type_oracle": "number"
        },
        {
            "name": "DGN_PAL",
            "description": "Diagnostic principal (DP)",
            "type": "string",
            "nomenclature": "MS_CIM_V:CIM_COD",
            "length": "6",
            "format": "default",
            "dateCreated": "2005",
            "dateDeleted": "",
            "dateMissing": [],
            "observation": "",
            "regle_gestion": "",
            "type_oracle": "string"
        },
        {
            "name": "DGN_REL",
            "description": "Diagnostic relié (DR)",
            "type": "string",
            "nomenclature": "MS_CIM_V:CIM_COD",
            "length": "6",
            "format": "default",
            "dateCreated": "2005",
            "dateDeleted": "",
            "dateMissing": [],
            "observation": "",
            "regle_gestion": "",
            "type_oracle": "string"
        },
        {
            "name": "DOS_TYP",
            "description": "Type de dosimétrie",
            "type": "string",
            "nomenclature": "-",
            "length": "1",
            "format": "default",
            "constraints": {
                "enum": [
                    "1",
                    "2",
                    "3",
                    "4"
                ]
            },
            "dateCreated": "2009",
            "dateDeleted": "",
            "dateMissing": [],
            "observation": "",
            "regle_gestion": "",
            "type_oracle": "string"
        },
        {
            "name": "ENT_MOD",
            "description": "Mode d'entrée dans le champ du PMSI-MCO",
            "type": "string",
            "nomenclature": "MS_SOR_V:SOR_MOD_COD",
            "length": "1",
            "format": "default",
            "dateCreated": "2005",
            "dateDeleted": "",
            "dateMissing": [],
            "observation": "",
            "regle_gestion": "",
            "type_oracle": "string"
        },
        {
            "name": "ENT_PRV",
            "description": "Provenance",
            "type": "string",
            "nomenclature": "MS_PRV_V:PRV_COD",
            "length": "1",
            "format": "default",
            "dateCreated": "2005",
            "dateDeleted": "",
            "dateMissing": [],
            "observation": "",
            "regle_gestion": "",
            "type_oracle": "string"
        },
        {
            "name": "ETA_NUM",
            "description": "Numéro FINESS e-PMSI",
            "type": "integer",
            "nomenclature": "-",
            "length": "9",
            "format": "default",
            "constraints": {
                "minimum": 100000000,
                "maximum": 999999999
            },
            "dateCreated": "2005",
            "dateDeleted": "",
            "dateMissing": [],
            "observation": "",
            "regle_gestion": "",
            "type_oracle": "string"
        },
        {
            "name": "ETE_GHS_NUM",
            "description": "Numéro de GHS (du GHM GENRSA)",
            "type": "integer",
            "nomenclature": "-",
            "length": "4",
            "format": "default",
            "constraints": {
                "minimum": 1000,
                "maximum": 9999
            },
            "dateCreated": "2005",
            "dateDeleted": "",
            "dateMissing": [],
            "observation": "",
            "regle_gestion": "",
            "type_oracle": "number"
        },
        {
            "name": "EXB_NBJ",
            "description": "Nb journées EXB",
            "type": "integer",
            "nomenclature": "-",
            "length": "3",
            "format": "default",
            "constraints": {
                "maximum": 320
            },
            "dateCreated": "2009",
            "dateDeleted": "",
            "dateMissing": [],
            "observation": "",
            "regle_gestion": "",
            "type_oracle": "number"
        },
        {
            "name": "GHS_9615_ACT",
            "description": "Nombre d'actes menant dans le GHS 9615",
            "type": "integer",
            "nomenclature": "-",
            "length": "3",
            "format": "default",
            "constraints": {
                "maximum": 107
            },
            "dateCreated": "2009",
            "dateDeleted": "",
            "dateMissing": [],
            "observation": "",
            "regle_gestion": "",
            "type_oracle": "number"
        },
        {
            "name": "GHS_HS_INNOV",
            "description": "GHS si non prise en compte de l'innovation",
            "type": "integer",
            "nomenclature": "-",
            "length": "4",
            "format": "default",
            "constraints": {
                "minimum": 1000,
                "maximum": 9999
            },
            "dateCreated": "2015",
            "dateDeleted": "",
            "dateMissing": [],
            "observation": "",
            "regle_gestion": "",
            "type_oracle": "string"
        },
        {
            "name": "GHS_NUM",
            "description": "Numéro de GHS (du GHM GENRSA)",
            "type": "integer",
            "nomenclature": "-",
            "length": "4",
            "format": "default",
            "constraints": {
                "minimum": 1000,
                "maximum": 9999
            },
            "dateCreated": "2005",
            "dateDeleted": "",
            "dateMissing": [],
            "observation": "",
            "regle_gestion": "",
            "type_oracle": "string"
        },
        {
            "name": "GRC_GHM",
            "description": "GHM calculé par la clinique",
            "type": "string",
            "nomenclature": "-",
            "length": "6",
            "format": "default",
            "constraints": {
                "minLength": 6
            },
            "dateCreated": "2005",
            "dateDeleted": "",
            "dateMissing": [],
            "observation": "",
            "regle_gestion": "",
            "type_oracle": "string"
        },
        {
            "name": "GRC_RET",
            "description": "Groupage établissement Code Retour",
            "type": "string",
            "nomenclature": "-",
            "length": "3",
            "format": "default",
            "dateCreated": "2005",
            "dateDeleted": "",
            "dateMissing": [],
            "observation": "",
            "regle_gestion": "",
            "type_oracle": "string"
        },
        {
            "name": "GRC_VER",
            "description": "Groupage établissement Version classification",
            "type": "integer",
            "nomenclature": "-",
            "length": "2",
            "format": "default",
            "constraints": {
                "minimum": -1,
                "maximum": 20
            },
            "dateCreated": "2005",
            "dateDeleted": "",
            "dateMissing": [],
            "observation": "",
            "regle_gestion": "",
            "type_oracle": "string"
        },
        {
            "name": "GRG_GHM",
            "description": "GHM calculé par le GENRSA",
            "type": "string",
            "nomenclature": "-",
            "length": "6",
            "format": "default",
            "constraints": {
                "minLength": 6
            },
            "dateCreated": "2005",
            "dateDeleted": "",
            "dateMissing": [],
            "observation": "",
            "regle_gestion": "",
            "type_oracle": "string"
        },
        {
            "name": "GRG_RET",
            "description": "Code retour obtenu par GENRSA",
            "type": "string",
            "nomenclature": "-",
            "length": "3",
            "format": "default",
            "dateCreated": "2005",
            "dateDeleted": "",
            "dateMissing": [],
            "observation": "",
            "regle_gestion": "",
            "type_oracle": "string"
        },
        {
            "name": "GRG_VER",
            "description": "Groupage GENRSA :Version de la classification",
            "type": "string",
            "nomenclature": "-",
            "length": "2",
            "format": "default",
            "constraints": {
                "enum": [
                    "11"
                ]
            },
            "dateCreated": "2005",
            "dateDeleted": "",
            "dateMissing": [],
            "observation": "",
            "regle_gestion": "",
            "type_oracle": "string"
        },
        {
            "name": "INNOV_NUM",
            "description": "Numéro d'innovation",
            "type": "string",
            "nomenclature": "-",
            "length": "15",
            "format": "default",
            "constraints": {
                "minLength": 15
            },
            "dateCreated": "2011",
            "dateDeleted": "",
            "dateMissing": [],
            "observation": "",
            "regle_gestion": "",
            "type_oracle": "string"
        },
        {
            "name": "MACH_TYP_RAD",
            "description": "Type de machine en radiothérapie",
            "type": "string",
            "nomenclature": "-",
            "length": "1",
            "format": "default",
            "constraints": {
                "enum": [
                    "1",
                    "2",
                    "3",
                    "4",
                    "8"
                ]
            },
            "dateCreated": "2009",
            "dateDeleted": "",
            "dateMissing": [],
            "observation": "",
            "regle_gestion": "",
            "type_oracle": "string"
        },
        {
            "name": "NBR_ACT",
            "description": "Nombre de zones d'actes (nA) dans ce RSA",
            "type": "integer",
            "nomenclature": "-",
            "length": "5",
            "format": "default",
            "constraints": {
                "minimum": 0,
                "maximum": 2500
            },
            "dateCreated": "2005",
            "dateDeleted": "",
            "dateMissing": [],
            "observation": "",
            "regle_gestion": "",
            "type_oracle": "number"
        },
        {
            "name": "NBR_DGN",
            "description": "Nombre de diagnostics associés significatifs (nDAS) dans ce RSA",
            "type": "integer",
            "nomenclature": "-",
            "length": "3",
            "format": "default",
            "constraints": {
                "minimum": 0,
                "maximum": 100
            },
            "dateCreated": "2005",
            "dateDeleted": "",
            "dateMissing": [],
            "observation": "",
            "regle_gestion": "",
            "type_oracle": "number"
        },
        {
            "name": "NBR_RUM",
            "description": "Nombre de RUM composant le RSS d'origine (NbRUM)",
            "type": "integer",
            "nomenclature": "-",
            "length": "2",
            "format": "default",
            "dateCreated": "2005",
            "dateDeleted": "",
            "dateMissing": [],
            "observation": "",
            "regle_gestion": "",
            "type_oracle": "number"
        },
        {
            "name": "NBR_SEA",
            "description": "Nombre de séances",
            "type": "integer",
            "nomenclature": "-",
            "length": "2",
            "format": "default",
            "dateCreated": "2005",
            "dateDeleted": "",
            "dateMissing": [],
            "observation": "",
            "regle_gestion": "",
            "type_oracle": "number"
        },
        {
            "name": "NBR_SUP_NN1",
            "description": "Nombre de suppléments NN1",
            "type": "integer",
            "nomenclature": "-",
            "length": "3",
            "format": "default",
            "constraints": {
                "minimum": 0,
                "maximum": 299
            },
            "dateCreated": "2005",
            "dateDeleted": "",
            "dateMissing": [],
            "observation": "",
            "regle_gestion": "",
            "type_oracle": "number"
        },
        {
            "name": "NBR_SUP_NN2",
            "description": "Nombre de suppléments NN2",
            "type": "integer",
            "nomenclature": "-",
            "length": "3",
            "format": "default",
            "constraints": {
                "minimum": 0,
                "maximum": 199
            },
            "dateCreated": "2005",
            "dateDeleted": "",
            "dateMissing": [],
            "observation": "",
            "regle_gestion": "",
            "type_oracle": "number"
        },
        {
            "name": "NBR_SUP_NN3",
            "description": "Nombre de suppléments NN3",
            "type": "integer",
            "nomenclature": "-",
            "length": "3",
            "format": "default",
            "constraints": {
                "minimum": 0,
                "maximum": 399
            },
            "dateCreated": "2005",
            "dateDeleted": "",
            "dateMissing": [],
            "observation": "",
            "regle_gestion": "",
            "type_oracle": "number"
        },
        {
            "name": "NBR_SUP_REA",
            "description": "Nombre de suppléments pour REA (réanimation)",
            "type": "integer",
            "nomenclature": "-",
            "length": "3",
            "format": "default",
            "dateCreated": "2005",
            "dateDeleted": "",
            "dateMissing": [],
            "observation": "",
            "regle_gestion": "",
            "type_oracle": "number"
        },
        {
            "name": "NBR_SUP_REP",
            "description": "Nombre de suppléments REP (réanimation pédiatrique)",
            "type": "integer",
            "nomenclature": "-",
            "length": "3",
            "format": "default",
            "dateCreated": "2007",
            "dateDeleted": "",
            "dateMissing": [],
            "observation": "",
            "regle_gestion": "",
            "type_oracle": "number"
        },
        {
            "name": "NBR_SUP_SOI",
            "description": "Nombre de suppléments soins intensifs provenant de la réanimation",
            "type": "integer",
            "nomenclature": "-",
            "length": "3",
            "format": "default",
            "constraints": {
                "minimum": 0,
                "maximum": 200
            },
            "dateCreated": "2005",
            "dateDeleted": "",
            "dateMissing": [],
            "observation": "",
            "regle_gestion": "",
            "type_oracle": "number"
        },
        {
            "name": "NBR_SUP_SRC",
            "description": "Nombre de suppléments pour SRC (surveillance continue)",
            "type": "integer",
            "nomenclature": "-",
            "length": "3",
            "format": "default",
            "dateCreated": "2005",
            "dateDeleted": "",
            "dateMissing": [],
            "observation": "",
            "regle_gestion": "",
            "type_oracle": "number"
        },
        {
            "name": "NBR_SUP_STF",
            "description": "Nombre de suppléments pour STF (soins intensifs)",
            "type": "integer",
            "nomenclature": "-",
            "length": "3",
            "format": "default",
            "dateCreated": "2005",
            "dateDeleted": "",
            "dateMissing": [],
            "observation": "",
            "regle_gestion": "",
            "type_oracle": "number"
        },
        {
            "name": "PAS_LIT_DED",
            "description": "Passage dans un lit dédié de soins palliatifs",
            "type": "boolean",
            "nomenclature": "-",
            "length": "1",
            "format": "default",
            "dateCreated": "2005",
            "dateDeleted": "",
            "dateMissing": [],
            "observation": "",
            "regle_gestion": "",
            "type_oracle": "string"
        },
        {
            "name": "PLO_ACT",
            "description": "Type de prestation de prélèvement d'organe",
            "type": "integer",
            "nomenclature": "-",
            "length": "1",
            "format": "default",
            "constraints": {
                "minimum": 0,
                "maximum": 3
            },
            "dateCreated": "2005",
            "dateDeleted": "",
            "dateMissing": [],
            "observation": "",
            "regle_gestion": "",
            "type_oracle": "string"
        },
        {
            "name": "POI_NAI",
            "description": "Poids d'entrée (en grammes)",
            "type": "integer",
            "nomenclature": "-",
            "length": "4",
            "format": "default",
            "dateCreated": "2005",
            "dateDeleted": "",
            "dateMissing": [],
            "observation": "",
            "regle_gestion": "",
            "type_oracle": "number"
        },
        {
            "name": "RSA_NUM",
            "description": "N° d'index du RSA",
            "type": "integer",
            "nomenclature": "-",
            "length": "10",
            "format": "default",
            "constraints": {
                "minimum": 1000000000,
                "maximum": 9999999999
            },
            "dateCreated": "2005",
            "dateDeleted": "",
            "dateMissing": [],
            "observation": "",
            "regle_gestion": "",
            "type_oracle": "string"
        },
        {
            "name": "RSS_NUM",
            "description": "Numéro de version du format du RSA",
            "type": "string",
            "nomenclature": "-",
            "length": "3",
            "format": "default",
            "constraints": {
                "enum": [
                    "224"
                ]
            },
            "dateCreated": "2005",
            "dateDeleted": "",
            "dateMissing": [],
            "observation": "",
            "regle_gestion": "",
            "type_oracle": "string"
        },
        {
            "name": "RTH_SUP_NBR",
            "description": "Nombre de zones de suppléments de radiothérapie (Nb_Rdth)",
            "type": "integer",
            "nomenclature": "-",
            "length": "1",
            "format": "default",
            "constraints": {
                "minimum": 0,
                "maximum": 3
            },
            "dateCreated": "2011",
            "dateDeleted": "",
            "dateMissing": [],
            "observation": "",
            "regle_gestion": "",
            "type_oracle": "number"
        },
        {
            "name": "SEJ_COD_CONF",
            "description": "Confirmation du codage du séjour",
            "type": "string",
            "nomenclature": "-",
            "length": "1",
            "format": "default",
            "constraints": {
                "enum": [
                    "",
                    "1",
                    "2"
                ]
            },
            "dateCreated": "2009",
            "dateDeleted": "",
            "dateMissing": [],
            "observation": "",
            "regle_gestion": "",
            "type_oracle": "string"
        },
        {
            "name": "SEJ_NBJ",
            "description": "Durée totale du séjour dans le champ du PMSI (vide si séances)",
            "type": "integer",
            "nomenclature": "-",
            "length": "4",
            "format": "default",
            "constraints": {
                "minimum": 0,
                "maximum": 2999
            },
            "dateCreated": "2005",
            "dateDeleted": "",
            "dateMissing": [],
            "observation": "",
            "regle_gestion": "",
            "type_oracle": "number"
        },
        {
            "name": "SEJ_TYP",
            "description": "Type de séjour",
            "type": "string",
            "nomenclature": "-",
            "length": "1",
            "format": "default",
            "constraints": {
                "enum": [
                    "A",
                    "B",
                    "."
                ]
            },
            "dateCreated": "2005",
            "dateDeleted": "",
            "dateMissing": [],
            "observation": "",
            "regle_gestion": "",
            "type_oracle": "string"
        },
        {
            "name": "SEQ_RUM",
            "description": "N° séquentiel du RUM ayant fourni le DP",
            "type": "integer",
            "nomenclature": "-",
            "length": "2",
            "format": "default",
            "constraints": {
                "minimum": 10,
                "maximum": 55
            },
            "dateCreated": "2008",
            "dateDeleted": "",
            "dateMissing": [],
            "observation": "",
            "regle_gestion": "",
            "type_oracle": "string"
        },
        {
            "name": "SOR_ANN",
            "description": "Année de sortie",
            "type": "year",
            "nomenclature": "-",
            "length": "4",
            "format": "default",
            "dateCreated": "2005",
            "dateDeleted": "",
            "dateMissing": [],
            "observation": "",
            "regle_gestion": "",
            "type_oracle": "string"
        },
        {
            "name": "SOR_DES",
            "description": "Destination",
            "type": "string",
            "nomenclature": "MS_PRV_V:PRV_COD",
            "length": "1",
            "format": "default",
            "dateCreated": "2005",
            "dateDeleted": "",
            "dateMissing": [],
            "observation": "",
            "regle_gestion": "",
            "type_oracle": "string"
        },
        {
            "name": "SOR_MOD",
            "description": "Mode de sortie du champ PMSI-MCO",
            "type": "string",
            "nomenclature": "MS_SOR_V:SOR_MOD_COD",
            "length": "1",
            "format": "default",
            "dateCreated": "2005",
            "dateDeleted": "",
            "dateMissing": [],
            "observation": "",
            "regle_gestion": "",
            "type_oracle": "string"
        },
        {
            "name": "SOR_MOI",
            "description": "Mois de sortie",
            "type": "date",
            "nomenclature": "-",
            "length": "2",
            "format": "%m",
            "dateCreated": "2005",
            "dateDeleted": "",
            "dateMissing": [],
            "observation": "",
            "regle_gestion": "",
            "type_oracle": "string"
        },
        {
            "name": "SUP_ENT_DPA",
            "description": "Nombre de suppléments pour les entraînements à la dialyse péritonéale automatisée hors séances",
            "type": "integer",
            "nomenclature": "-",
            "length": "2",
            "format": "default",
            "constraints": {
                "minimum": 0,
                "maximum": 30
            },
            "dateCreated": "2006",
            "dateDeleted": "",
            "dateMissing": [],
            "observation": "",
            "regle_gestion": "",
            "type_oracle": "number"
        },
        {
            "name": "SUP_ENT_DPC",
            "description": "Nombre de suppléments pour les entraînements à la dialyse péritonéale continue ambulatoire hors séances",
            "type": "integer",
            "nomenclature": "-",
            "length": "2",
            "format": "default",
            "constraints": {
                "minimum": 0,
                "maximum": 58
            },
            "dateCreated": "2006",
            "dateDeleted": "",
            "dateMissing": [],
            "observation": "",
            "regle_gestion": "",
            "type_oracle": "number"
        },
        {
            "name": "SUP_ENT_HEM",
            "description": "Nombre de suppléments pour les entraînements à l'hémodialyse hors séances",
            "type": "integer",
            "nomenclature": "-",
            "length": "2",
            "format": "default",
            "constraints": {
                "minimum": 0,
                "maximum": 16
            },
            "dateCreated": "2006",
            "dateDeleted": "",
            "dateMissing": [],
            "observation": "",
            "regle_gestion": "",
            "type_oracle": "number"
        },
        {
            "name": "SUP_HEM_HS",
            "description": "Nombre de suppléments pour hémodialyse hors séances",
            "type": "integer",
            "nomenclature": "-",
            "length": "3",
            "format": "default",
            "constraints": {
                "minimum": 0,
                "maximum": 199
            },
            "dateCreated": "2006",
            "dateDeleted": "",
            "dateMissing": [],
            "observation": "",
            "regle_gestion": "",
            "type_oracle": "number"
        },
        {
            "name": "SUP_RAD_PED",
            "description": "Nombre de suppléments radiothérapie pédiatrique",
            "type": "integer",
            "nomenclature": "-",
            "length": "2",
            "format": "default",
            "constraints": {
                "minimum": 0,
                "maximum": 30
            },
            "dateCreated": "2012",
            "dateDeleted": "",
            "dateMissing": [],
            "observation": "",
            "regle_gestion": "",
            "type_oracle": "number"
        },
        {
            "name": "TAR_SEQ_NUM",
            "description": "Numéro séquentiel de tarifs",
            "type": "string",
            "nomenclature": "-",
            "length": "3",
            "format": "default",
            "constraints": {
                "enum": [
                    "003",
                    "004",
                    "005"
                ]
            },
            "dateCreated": "2010",
            "dateDeleted": "",
            "dateMissing": [],
            "observation": "",
            "regle_gestion": "",
            "type_oracle": "string"
        },
        {
            "name": "TOP_AVASTIN",
            "description": "Top Radiation partielle Avastin",
            "type": "boolean",
            "nomenclature": "-",
            "length": "1",
            "format": "default",
            "dateCreated": "2016",
            "dateDeleted": "",
            "dateMissing": [],
            "observation": "",
            "regle_gestion": "",
            "type_oracle": "string"
        },
        {
            "name": "TOP_DEF_CARD",
            "description": "Supplément défibrillateur cardiaque",
            "type": "boolean",
            "nomenclature": "-",
            "length": "1",
            "format": "default",
            "dateCreated": "2017",
            "dateDeleted": "",
            "dateMissing": [],
            "observation": "",
            "regle_gestion": "",
            "type_oracle": "string"
        },
        {
            "name": "TOP_GHS_MIN_SUS",
            "description": "Top GHS minoré",
            "type": "boolean",
            "nomenclature": "-",
            "length": "1",
            "format": "default",
            "dateCreated": "2015",
            "dateDeleted": "",
            "dateMissing": [],
            "observation": "",
            "regle_gestion": "",
            "type_oracle": "string"
        },
        {
            "name": "TOP_VLV_AOR",
            "description": "Top valves aortiques percutanées",
            "type": "boolean",
            "nomenclature": "-",
            "length": "1",
            "format": "default",
            "dateCreated": "2013",
            "dateDeleted": "",
            "dateMissing": [],
            "observation": "",
            "regle_gestion": "",
            "type_oracle": "string"
        },
        {
            "name": "TYP_GEN_RSA",
            "description": "Type de génération automatique du RSA",
            "type": "integer",
            "nomenclature": "-",
            "length": "1",
            "format": "default",
            "constraints": {
                "minimum": 0,
                "maximum": 3
            },
            "dateCreated": "2015",
            "dateDeleted": "",
            "dateMissing": [],
            "observation": "",
            "regle_gestion": "",
            "type_oracle": "string"
        },
        {
            "name": "UHCD_TOP",
            "description": "Top UHCD",
            "type": "boolean",
            "nomenclature": "-",
            "length": "1",
            "format": "default",
            "dateCreated": "2009",
            "dateDeleted": "",
            "dateMissing": [],
            "observation": "",
            "regle_gestion": "",
            "type_oracle": "string"
        },
        {
            "name": "NBR_NAIS_ANT",
            "description": "Nombres de naissances vivantes antérieures",
            "type": "integer",
            "length": "2",
            "dateCreated": "2015",
            "dateDeleted": "2017",
            "nomenclature": "-",
            "dateMissing": [],
            "format": "default",
            "observation": "",
            "regle_gestion": "",
            "type_oracle": "number"
        },
        {
            "name": "GHS_9512_ACT",
            "description": "Nombre d'actes menant dans le GHS 9512",
            "type": "integer",
            "length": "8",
            "dateCreated": "2008",
            "dateDeleted": "2009",
            "nomenclature": "-",
            "dateMissing": [],
            "format": "default",
            "observation": "",
            "regle_gestion": "",
            "type_oracle": "number"
        },
        {
            "name": "GHS_9515_ACT",
            "description": "Nombre d'actes menant dans le GHS 9515",
            "type": "integer",
            "length": "8",
            "dateCreated": "2008",
            "dateDeleted": "2009",
            "nomenclature": "-",
            "dateMissing": [],
            "format": "default",
            "observation": "",
            "regle_gestion": "",
            "type_oracle": "number"
        },
        {
            "name": "GHS_9511_ACT",
            "description": "Nombre d'actes menant dans le GHS 9511",
            "type": "integer",
            "length": "8",
            "dateCreated": "2008",
            "dateDeleted": "2009",
            "nomenclature": "-",
            "dateMissing": [],
            "format": "default",
            "observation": "",
            "regle_gestion": "",
            "type_oracle": "number"
        },
        {
            "name": "GHS_9619_ACT",
            "description": "Nombre d'actes menant dans le GHS 9619",
            "type": "integer",
            "length": "8",
            "dateCreated": "2009",
            "dateDeleted": "2011",
            "nomenclature": "-",
            "dateMissing": [],
            "format": "default",
            "observation": "",
            "regle_gestion": "",
            "type_oracle": "number"
        },
        {
            "name": "GHS_9610_ACT",
            "description": "Nombre d'actes menant dans le GHS 9610",
            "type": "integer",
            "length": "8",
            "dateCreated": "2009",
            "dateDeleted": "2011",
            "nomenclature": "-",
            "dateMissing": [],
            "format": "default",
            "observation": "",
            "regle_gestion": "",
            "type_oracle": "number"
        },
        {
            "name": "NBR_IVG_ANT",
            "description": "Nombre d’IVG antérieures",
            "type": "integer",
            "length": "2",
            "dateCreated": "2015",
            "dateDeleted": "2017",
            "nomenclature": "-",
            "dateMissing": [],
            "format": "default",
            "observation": "",
            "regle_gestion": "",
            "type_oracle": "number"
        },
        {
            "name": "GHS_9620_ACT",
            "description": "Nombre d'actes menant dans le GHS 9620",
            "type": "integer",
            "length": "8",
            "dateCreated": "2009",
            "dateDeleted": "2011",
            "nomenclature": "-",
            "dateMissing": [],
            "format": "default",
            "observation": "",
            "regle_gestion": "",
            "type_oracle": "number"
        },
        {
            "name": "NBR_SUP_SSC",
            "description": "Nombre de suppléments pour SSC (surveillance continue)",
            "type": "integer",
            "length": "8",
            "dateCreated": "2006",
            "dateDeleted": "2009",
            "nomenclature": "-",
            "dateMissing": [],
            "format": "default",
            "observation": "",
            "regle_gestion": "",
            "type_oracle": "number"
        },
        {
            "name": "GHS_9622_ACT",
            "description": "Nombre d'actes menant dans le GHS 9622",
            "type": "integer",
            "length": "8",
            "dateCreated": "2010",
            "dateDeleted": "2011",
            "nomenclature": "-",
            "dateMissing": [],
            "format": "default",
            "observation": "",
            "regle_gestion": "",
            "type_oracle": "number"
        },
        {
            "name": "GHM_24707Z_ACT",
            "description": "Nombre d'actes menant dans le GHM 24Z07Z ou 28Z13Z",
            "type": "integer",
            "length": "3",
            "dateCreated": "2005",
            "dateDeleted": "2008",
            "nomenclature": "-",
            "dateMissing": [],
            "format": "default",
            "observation": "",
            "regle_gestion": "",
            "type_oracle": "number"
        },
        {
            "name": "GHS_9621_ACT",
            "description": "Nombre d'actes menant dans le GHS 9621",
            "type": "integer",
            "length": "8",
            "dateCreated": "2009",
            "dateDeleted": "2011",
            "nomenclature": "-",
            "dateMissing": [],
            "format": "default",
            "observation": "",
            "regle_gestion": "",
            "type_oracle": "number"
        },
        {
            "name": "NBR_SEA_SROS",
            "description": "Nombre de séances avant SROS",
            "type": "integer",
            "length": "8",
            "dateCreated": "2006",
            "dateDeleted": "2009",
            "nomenclature": "-",
            "dateMissing": [],
            "format": "default",
            "observation": "",
            "regle_gestion": "",
            "type_oracle": "number"
        },
        {
            "name": "GHM_24706Z_ACT",
            "description": "Nombre d'actes menant dans le GHM 24Z06Z ou 28Z12Z",
            "type": "integer",
            "length": "3",
            "dateCreated": "2005",
            "dateDeleted": "2008",
            "nomenclature": "-",
            "dateMissing": [],
            "format": "default",
            "observation": "",
            "regle_gestion": "",
            "type_oracle": "number"
        },
        {
            "name": "GHM_24705Z_ACT",
            "description": "Nombre d'actes menant dans le GHM 24Z05Z ou 28Z11Z",
            "type": "integer",
            "length": "3",
            "dateCreated": "2005",
            "dateDeleted": "2008",
            "nomenclature": "-",
            "dateMissing": [],
            "format": "default",
            "observation": "",
            "regle_gestion": "",
            "type_oracle": "number"
        },
        {
            "name": "FAIS_NBR",
            "description": "Nombre de faisceaux",
            "type": "integer",
            "length": "8",
            "dateCreated": "2010",
            "dateDeleted": "2015",
            "nomenclature": "-",
            "dateMissing": [],
            "format": "default",
            "observation": "",
            "regle_gestion": "",
            "type_oracle": "number"
        },
        {
            "name": "GHS_9611_ACT",
            "description": "Nombre d'actes menant dans le GHS 9611",
            "type": "integer",
            "length": "8",
            "dateCreated": "2009",
            "dateDeleted": "2011",
            "nomenclature": "-",
            "dateMissing": [],
            "format": "default",
            "observation": "",
            "regle_gestion": "",
            "type_oracle": "number"
        },
        {
            "name": "GHS_9612_ACT",
            "description": "Nombre d'actes menant dans le GHS 9612",
            "type": "integer",
            "length": "8",
            "dateCreated": "2009",
            "dateDeleted": "2011",
            "nomenclature": "-",
            "dateMissing": [],
            "format": "default",
            "observation": "",
            "regle_gestion": "",
            "type_oracle": "number"
        },
        {
            "name": "GHS_9510_ACT",
            "description": "Nombre d'actes menant dans le GHS 9510",
            "type": "integer",
            "length": "8",
            "dateCreated": "2008",
            "dateDeleted": "2009",
            "nomenclature": "-",
            "dateMissing": [],
            "format": "default",
            "observation": "",
            "regle_gestion": "",
            "type_oracle": "number"
        },
        {
            "name": "GHS_9524_ACT",
            "description": "Nombre d'actes menant dans le GHS 9524",
            "type": "integer",
            "length": "8",
            "dateCreated": "2008",
            "dateDeleted": "2009",
            "nomenclature": "-",
            "dateMissing": [],
            "format": "default",
            "observation": "",
            "regle_gestion": "",
            "type_oracle": "number"
        },
        {
            "name": "DLY_ACT",
            "description": "Forfait dialyse",
            "type": "string",
            "length": "4",
            "dateCreated": "2005",
            "dateDeleted": "2015",
            "nomenclature": "-",
            "dateMissing": [],
            "format": "default",
            "observation": "",
            "regle_gestion": "",
            "type_oracle": "string"
        },
        {
            "name": "GHS_6523_ACT",
            "description": "Nombre d'actes menant dans le GHS 6523",
            "type": "integer",
            "length": "8",
            "dateCreated": "2009",
            "dateDeleted": "2011",
            "nomenclature": "-",
            "dateMissing": [],
            "format": "default",
            "observation": "",
            "regle_gestion": "",
            "type_oracle": "number"
        },
        {
            "name": "NBR_SUP_SRA",
            "description": "Nombre de suppléments pour SRA (réanimation)",
            "type": "integer",
            "length": "8",
            "dateCreated": "2006",
            "dateDeleted": "2009",
            "nomenclature": "-",
            "dateMissing": [],
            "format": "default",
            "observation": "",
            "regle_gestion": "",
            "type_oracle": "number"
        },
        {
            "name": "COD_IGS",
            "description": "IGS 2",
            "type": "string",
            "length": "3",
            "dateCreated": "2005",
            "dateDeleted": "2010",
            "nomenclature": "-",
            "dateMissing": [],
            "format": "default",
            "observation": "",
            "regle_gestion": "",
            "type_oracle": "string"
        },
        {
            "name": "ANN_IVG_PREC",
            "description": "Année de l’IVG précédente",
            "type": "year",
            "length": "4",
            "dateCreated": "2015",
            "dateDeleted": "2017",
            "nomenclature": "-",
            "dateMissing": [],
            "format": "default",
            "observation": "",
            "regle_gestion": "",
            "type_oracle": "string"
        }
    ],
    "name": "T_MCOaaB",
    "title": "Description du Séjour",
    "produit": "PMSI MCO",
    "missingValues": [
        ""
    ],
    "primaryKey": [
        "ETA_NUM",
        "RSA_NUM"
    ],
    "foreignKeys": [
        {
            "fields": "ETA_NUM",
            "reference": {
                "resource": "T_MCOaaE",
                "fields": "ETA_NUM"
            }
        }
    ],
    "history": {
        "dateCreated": "2005",
        "dateDeleted": "",
        "dateMissing": []
    },
    "champ": "Public et Privé",
    "observation": "cette table fournit le GHM, la durée globale du séjourensemble des variables servant au calcul tarifaire pour la T2A. Pour avoir le détail des règles de calcul des séjours, il faut se référer à l'onglet \"GHM-GHS\". Attention des RSA fictifs qu'ils faut filtrer =>voir règle de gestion pour les supprimer."
}
