nomenclature,titre,variables_liees,nombre_lignes
IR_BIO_R,Titre manquant,NABM_COD,1076
IR_DEP_V,Qualificatif Dépense de Prestation,Aucune variable liée,20
IR_PHA_R,Titre manquant,Aucune variable liée,19517
